[
  {
    "name": "Firefox",
    "baseUrl": "https://firefox-ci-tc.services.mozilla.com/api/index/v1/task/mobile.v2.fenix.release.latest.{arch}/artifacts/public/build/{arch}/target.apk",
    "architectures": ["arm64-v8a", "armeabi-v7a"],
    "forceFileName": "org.mozilla.firefox-{arch}.apk"
  },
  {
    "name": "Firefox Beta",
    "baseUrl": "https://firefox-ci-tc.services.mozilla.com/api/index/v1/task/mobile.v2.fenix.beta.latest.{arch}/artifacts/public/build/{arch}/target.apk",
    "architectures": ["arm64-v8a", "armeabi-v7a"],
    "forceFileName": "org.mozilla.firefox-beta-{arch}.apk"
  },
  {
    "name": "Firefox Focus",
    "baseUrl": "https://firefox-ci-tc.services.mozilla.com/api/index/v1/task/mobile.v3.firefox-android.apks.focus-release.latest.{arch}/artifacts/public/build/focus/{arch}/target.apk",
    "architectures": ["arm64-v8a", "armeabi-v7a"],
    "forceFileName": "org.mozilla.firefox-focus-{arch}.apk"
  },
  {
    "name": "Firefox Klar",
    "baseUrl": "https://firefox-ci-tc.services.mozilla.com/api/index/v1/task/mobile.v3.firefox-android.apks.klar-release.latest.{arch}/artifacts/public/build/klar/{arch}/target.apk",
    "architectures": ["arm64-v8a", "armeabi-v7a"],
    "forceFileName": "org.mozilla.firefox-klar-{arch}.apk"
  },
  {
    "name": "Signal",
    "baseUrl": "https://updates.signal.org/android/Signal-Android-website-prod-universal-release-{ver}.apk",
    "forceFileName": "Signal-Android.apk",
    "version": {
      "url": "https://updates.signal.org/android/latest.json",
      "json": "versionName"
    }
  },
  {
    "name": "Wire",
    "baseUrl": "https://wire-app.wire.com/android/prod/wire-prod-release-{ver}.apk",
    "forceFileName": "wire.apk",
    "version": {
      "url": "https://api.github.com/repos/wireapp/wire-android/releases/latest",
      "json": "tag_name"
    },
    "ignoreErrors": true
  },
  {
    "name": "Kiwix",
    "baseUrl": "https://download.kiwix.org/release/kiwix-android/kiwix.apk",
    "ignoreErrors": true
  }
]
